{
    "meta": {
        "display_name": "Homework 1",
        "show_name": "Dangerous DJs",
        "start_time": "9:00 PM",
        "show_hours": 2,
        "sign_ins_requested": 5,
        "show_type": "MUSIC",
        "special_slots": [{
            "type": "meter",
            "hour": 2,
            "time": "10:30 PM"
        },
        {
            "type": "rmt_outgoing",
            "hour": 2,
            "slot": 1,
            "time": "10:15 PM"
        },
        {
            "type": "donor",
            "hour": 1,
            "slot": 1,
            "time": "9:15 PM"
        }]
    },
    "instructions": [{
        "text":"You arrive at the station and 8:45PM for your show \"Dangerous DJs\"",
        "actions": []
    },
    {
        "text":"You arrive on air and play the Legal ID at 9:02PM",
        "actions": [{
            "type": "sign_on",
            "time": "9:00 PM"
        },
        {
            "type": "legal_id",
            "time": "9:02 PM"
        }]
    },
    {
        "text":"You see when you get into the station that there is a Donor Announcement 4555 at 9:15PM. You say it on air at 9:16PM.",
        "actions": [{
            "type": "donor",
            "time": "9:16 PM"
        }]
    },
    {
        "text":"You back announce at 9:20PM.",
        "actions": []
    },
    {
        "text":"You smell something burning in the lobby. Someone has lit a fire in the trashcan. You better evacuate the building, but it is small, so you have time to sign off the station at 9:34PM.",
        "actions": [{
            "type": "interupt_off",
            "time": "9:34 PM",
            "reasons": ["[Ff]ire"]
        }]
    },
    {
        "text":"Scruff McGruff the Crime Dog Bursts into the station and puts the fire out, allowing you to sign back on air at 9:40PM.",
        "actions": [{
            "type": "interupt_on",
            "time": "9:40 PM"
        }]
    },
    {
        "text":"You play PSA 145 at 9:41PM.",
        "actions": [{
            "type": "psa",
            "number": 145,
            "time": "9:41 PM"
        }]
    },
    {
        "text":"You go on air and back announce, thanking Scruff.",
        "actions": []
    },
    {
        "text":"You play PSA 147 at 9:45PM.",
        "actions": [{
            "type": "psa",
            "number": 147,
            "time": "9:45 PM"
        }]
    },
    {
        "text":"Starting off the new hour fresh and ready for new Dangerous DJs and their hot mixtapes. The next hour contains PI, but its alright, you are starting the Safe Harbor time. You play the Legal ID at 10:00PM and Content Disclaimer at 10:01PM.",
        "actions": [{
            "type": "legal_id",
            "time": "10:00 PM"
        }]
    },
    {
        "text":"You then play PSA 248 at 10:05PM, after your first sick beat.",
        "actions": [{
            "type": "psa",
            "number": 248,
            "time": "10:05 PM"
        }]
    },
    {
        "text":"You look down at the schedule and see that you need to do a Monthly EAS test at 10:15PM. Which you do on the dot.",
        "actions": [{
            "type": "rmt_outgoing",
            "time": "10:15 PM"
        }]
    },
    {
        "text":"You decide to play PSA 256 right after at 10:17PM.",
        "actions": [{
            "type": "psa",
            "number": 256,
            "time": "10:17 PM"
        }]
    },
    {
        "text":"You realize that you have to take a Meter Reading at 10:30PM, it reads 199.9W.",
        "actions": [{
            "type": "meter",
            "reading": 199.9
        }]
    },
    {
        "text":"You then receive a weekly test from Control 1 at 10:42PM.",
        "actions": [{
            "type": "rwt_incoming",
            "station": "Control 1",
            "time": "10:42 PM"
        }]
    },
    {
        "text":"Then you stop your last PSA 101 at 10:55PM and after say goodnight to all of your trustworthy listeners.",
        "actions": [{
            "type": "psa",
            "number": 101,
            "time": "10:55 PM"
        }]
    },
    {
        "text":"You finish your relaxing show at 11:02PM and leave the station before anything else can make the night more 'relaxing'.",
        "actions": [{
            "type": "sign_off",
            "time": "11:00 PM"
        }]
    }]
}
